%YAML 1.1
%TAG !u! tag:unity3d.com,2011:
--- !u!114 &11400000
MonoBehaviour:
  m_ObjectHideFlags: 0
  m_CorrespondingSourceObject: {fileID: 0}
  m_PrefabInstance: {fileID: 0}
  m_PrefabAsset: {fileID: 0}
  m_GameObject: {fileID: 0}
  m_Enabled: 1
  m_EditorHideFlags: 0
  m_Script: {fileID: 11500000, guid: 84fed45957fd4c4e8806f1476bd86a72, type: 3}
  m_Name: CollectionPage
  m_EditorClassIdentifier: 
  skinItemConfigs:
  - preview: {fileID: 21300000, guid: 7a3ebcd103c434a299d2614206e49f52, type: 3}
    weight: 100
  - preview: {fileID: 21300000, guid: 7a3ebcd103c434a299d2614206e49f52, type: 3}
    weight: 100
  - preview: {fileID: 21300000, guid: 7a3ebcd103c434a299d2614206e49f52, type: 3}
    weight: 100
  - preview: {fileID: 21300000, guid: 7a3ebcd103c434a299d2614206e49f52, type: 3}
    weight: 100
  - preview: {fileID: 21300000, guid: 7a3ebcd103c434a299d2614206e49f52, type: 3}
    weight: 100
  - preview: {fileID: 21300000, guid: 7a3ebcd103c434a299d2614206e49f52, type: 3}
    weight: 100
  - preview: {fileID: 21300000, guid: 7a3ebcd103c434a299d2614206e49f52, type: 3}
    weight: 100
  - preview: {fileID: 21300000, guid: 7a3ebcd103c434a299d2614206e49f52, type: 3}
    weight: 100
  - preview: {fileID: 21300000, guid: 7a3ebcd103c434a299d2614206e49f52, type: 3}
    weight: 100
  skinPrices: 000000006400000064000000640000006400000064000000640000006400000064000000
